Predict method for fit_models — predict.fit_models • easysurv
…
predict(models)
#> $Good
#> $Good$profiles
#>    profile group
#> 1 profile1  Good
#> 
#> $Good$predicted_surv
#> # A tibble: 100 × 8
#>    .eval_time Exponential Gamma `Gen. Gamma` Gompertz `log-Logistic`
#>         <dbl>       <dbl> <dbl>        <dbl>    <dbl>          <dbl>
#>  1      0           1     1            1        1              1    
#>  2      0.374       0.978 0.995        1.00     0.983          0.996
#>  3      0.747       0.956 0.984        0.998    0.966          0.986
#>  4      1.12        0.935 0.968        0.988    0.948          0.972
#>  5      1.49        0.914 0.950        0.970    0.930          0.955
#>  6      1.87        0.893 0.930        0.946    0.911          0.934
#>  7      2.24        0.873 0.908        0.917    0.891          0.912
#>  8      2.62        0.854 0.885        0.886    0.872          0.887
#>  9      2.99        0.835 0.860        0.855    0.851          0.862
#> 10      3.36        0.816 0.835        0.824    0.830          0.835
#> # ℹ 90 more rows
#> # ℹ 2 more variables: `log-Normal` <dbl>, `Weibull (AFT)` <dbl>
#> 
#> $Good$predicted_hazards
#> # A tibble: 100 × 8
#>    .eval_time Exponential  Gamma `Gen. Gamma` Gompertz `log-Logistic`
#>         <dbl>       <dbl>  <dbl>        <dbl>    <dbl>          <dbl>
#>  1      0          0.0604 0        NaN          0.0440         0     
#>  2      0.374      0.0604 0.0234     0.000756   0.0463         0.0196
#>  3      0.747      0.0604 0.0364     0.0142     0.0486         0.0327
#>  4      1.12       0.0604 0.0463     0.0380     0.0510         0.0437
#>  5      1.49       0.0604 0.0544     0.0598     0.0536         0.0534
#>  6      1.87       0.0604 0.0613     0.0760     0.0563         0.0618
#>  7      2.24       0.0604 0.0672     0.0871     0.0591         0.0692
#>  8      2.62       0.0604 0.0724     0.0942     0.0621         0.0757
#>  9      2.99       0.0604 0.0770     0.0986     0.0652         0.0813
#> 10      3.36       0.0604 0.0811     0.101      0.0685         0.0861
#> # ℹ 90 more rows
#> # ℹ 2 more variables: `log-Normal` <dbl>, `Weibull (AFT)` <dbl>
…
#> 208 6.72876712 0.04802912 0.009014006 0.25591249
#> 209 6.76986301 0.04748465 0.008577655 0.26286816
#> 210 6.95616438 0.04508905 0.006804284 0.29878560
#> 211 6.98904110 0.04467889 0.006524434 0.30595806
#> 212 7.00273973 0.04450909 0.006410684 0.30902460
#> 213 7.28493151 0.04115009 0.004408642 0.38409333
#> 
#> 
#> $Medium
#> $Medium$profiles
#>    profile  group
#> 1 profile2 Medium
#> 
#> $Medium$predicted_surv
#> # A tibble: 100 × 8
#>    .eval_time Exponential Gamma `Gen. Gamma` Gompertz `log-Logistic`
#>         <dbl>       <dbl> <dbl>        <dbl>    <dbl>          <dbl>
#>  1      0           1     1            1        1              1    
#>  2      0.374       0.950 0.986        0.998    0.962          0.988
#>  3      0.747       0.903 0.957        0.974    0.923          0.960
#>  4      1.12        0.858 0.920        0.925    0.884          0.921
#>  5      1.49        0.815 0.877        0.866    0.845          0.876
#>  6      1.87        0.774 0.832        0.806    0.806          0.826
#>  7      2.24        0.736 0.785        0.749    0.767          0.775
#>  8      2.62        0.699 0.738        0.697    0.728          0.725
#>  9      2.99        0.664 0.691        0.650    0.689          0.676
#> 10      3.36        0.631 0.646        0.607    0.650          0.629
#> # ℹ 90 more rows
#> # ℹ 2 more variables: `log-Normal` <dbl>, `Weibull (AFT)` <dbl>
#> 
#> $Medium$predicted_hazards
#> # A tibble: 100 × 8
#>    .eval_time Exponential  Gamma `Gen. Gamma` Gompertz `log-Logistic`
#>         <dbl>       <dbl>  <dbl>        <dbl>    <dbl>          <dbl>
#>  1      0           0.137 0          NaN         0.102         0     
#>  2      0.374       0.137 0.0627       0.0239    0.107         0.0579
#>  3      0.747       0.137 0.0944       0.108     0.112         0.0949
#>  4      1.12        0.137 0.117        0.162     0.118         0.124 
#>  5      1.49        0.137 0.135        0.186     0.124         0.146 
#>  6      1.87        0.137 0.149        0.195     0.130         0.163 
#>  7      2.24        0.137 0.161        0.195     0.137         0.176 
#>  8      2.62        0.137 0.170        0.191     0.143         0.184 
#>  9      2.99        0.137 0.179        0.186     0.151         0.190 
#> 10      3.36        0.137 0.186        0.179     0.158         0.193 
#> # ℹ 90 more rows
#> # ℹ 2 more variables: `log-Normal` <dbl>, `Weibull (AFT)` <dbl>
…
#> 211 6.44657534 0.25634018 0.08316198 0.79014819
#> 212 6.49863014 0.25905542 0.08057083 0.83292809
#> 213 6.52054795 0.26020726 0.07945443 0.85215913
#> 214 6.54246575 0.26136423 0.07832640 0.87213583
#> 215 7.02191781 0.28696349 0.05334766 1.54361130
#> 216 7.15616438 0.29435893 0.04683227 1.85015974
#> 
#> 
#> $Poor
#> $Poor$profiles
#>    profile group
#> 1 profile3  Poor
#> 
#> $Poor$predicted_surv
#> # A tibble: 100 × 8
#>    .eval_time Exponential Gamma `Gen. Gamma` Gompertz `log-Logistic`
#>         <dbl>       <dbl> <dbl>        <dbl>    <dbl>          <dbl>
#>  1      0           1     1            1        1              1    
#>  2      0.374       0.900 0.962        0.978    0.918          0.961
#>  3      0.747       0.811 0.892        0.880    0.839          0.881
#>  4      1.12        0.730 0.808        0.769    0.764          0.784
#>  5      1.49        0.657 0.722        0.671    0.692          0.686
#>  6      1.87        0.592 0.637        0.590    0.624          0.597
#>  7      2.24        0.533 0.558        0.523    0.559          0.518
#>  8      2.62        0.479 0.485        0.468    0.499          0.451
#>  9      2.99        0.432 0.420        0.422    0.442          0.394
#> 10      3.36        0.389 0.361        0.383    0.389          0.345
#> # ℹ 90 more rows
#> # ℹ 2 more variables: `log-Normal` <dbl>, `Weibull (AFT)` <dbl>
#> 
#> $Poor$predicted_hazards
#> # A tibble: 100 × 8
#>    .eval_time Exponential Gamma `Gen. Gamma` Gompertz `log-Logistic`
#>         <dbl>       <dbl> <dbl>        <dbl>    <dbl>          <dbl>
#>  1      0           0.281 0          NaN        0.223          0    
#>  2      0.374       0.281 0.165        0.187    0.234          0.181
#>  3      0.747       0.281 0.238        0.344    0.246          0.280
#>  4      1.12        0.281 0.285        0.368    0.258          0.338
#>  5      1.49        0.281 0.319        0.355    0.271          0.368
#>  6      1.87        0.281 0.345        0.333    0.285          0.379
#>  7      2.24        0.281 0.365        0.309    0.299          0.377
#>  8      2.62        0.281 0.381        0.288    0.314          0.368
#>  9      2.99        0.281 0.395        0.268    0.330          0.356
#> 10      3.36        0.281 0.407        0.251    0.347          0.341
#> # ℹ 90 more rows
#> # ℹ 2 more variables: `log-Normal` <dbl>, `Weibull (AFT)` <dbl>
…
