Explore easysurv • easysurv
…
haven::read_sav() for SPSS (.sav) files

readxl::read_excel() for Excel (.xls & .xlsx)
files

readr::read_csv() for .csv files

We’re going to use easy_adtte as an example data set.
Since it’s data that comes loaded with easysurv, we don’t
need any of the above functions.

surv_data <- easy_adtte

surv_data
#> # A tibble: 2,199 × 19
#>    STUDYID   SUBJID USUBJID   AGE STR01 STR01N STR01L STR02 STR02N STR02L TRT01P
#>    <chr>      <dbl> <chr>   <dbl> <chr>  <dbl> <chr>  <chr>  <dbl> <chr>  <chr> 
#>  1 PSIVISSI…      1 PSIVIS…    78 Posi…      1 Hormo… NO P…      2 No pr… visma…
#>  2 PSIVISSI…      2 PSIVIS…    77 Posi…      1 Hormo… NO P…      2 No pr… table…
#>  3 PSIVISSI…      3 PSIVIS…    61 Posi…      1 Hormo… NO P…      2 No pr… table…
#>  4 PSIVISSI…      4 PSIVIS…    67 Nega…      2 Hormo… NO P…      2 No pr… table…
#>  5 PSIVISSI…      5 PSIVIS…    55 Posi…      1 Hormo… NO P…      2 No pr… visma…
#>  6 PSIVISSI…      6 PSIVIS…    70 Nega…      2 Hormo… NO P…      2 No pr… table…
#>  7 PSIVISSI…      7 PSIVIS…    54 Posi…      1 Hormo… NO P…      2 No pr… visma…
#>  8 PSIVISSI…      8 PSIVIS…    62 Nega…      2 Hormo… PRIO…      1 Prior… table…
#>  9 PSIVISSI…      9 PSIVIS…    61 Posi…      1 Hormo… NO P…      2 No pr… table…
#> 10 PSIVISSI…     10 PSIVIS…    65 Posi…      1 Hormo… NO P…      2 No pr… visma…
#> # ℹ 2,189 more rows
#> # ℹ 8 more variables: TRT01PN <dbl>, PARAM <chr>, PARAMCD <chr>, AVAL <dbl>,
#> #   CNSR <dbl>, EVNTDESC <chr>, CNSDTDSC <chr>, DCTREAS <chr>
…
easysurv does not require you to use certain column
names, although consistency is encouraged.

surv_data <- surv_data |>
  dplyr::filter(PARAMCD == "PFS") |> # Filtering may be relevant for your data
  dplyr::mutate(
    time = AVAL,
    event = 1 - CNSR, # Recode status to 0 = censored, 1 = event
    group = TRT01P
  ) |>
  dplyr::mutate_at("group", as.factor) |> # Convert to factor for easier stratification
  dplyr::as_tibble() # Convert to tibble for easier viewing

surv_data
#> # A tibble: 2,199 × 22
#>    STUDYID   SUBJID USUBJID   AGE STR01 STR01N STR01L STR02 STR02N STR02L TRT01P
#>    <chr>      <dbl> <chr>   <dbl> <chr>  <dbl> <chr>  <chr>  <dbl> <chr>  <chr> 
#>  1 PSIVISSI…      1 PSIVIS…    78 Posi…      1 Hormo… NO P…      2 No pr… visma…
#>  2 PSIVISSI…      2 PSIVIS…    77 Posi…      1 Hormo… NO P…      2 No pr… table…
#>  3 PSIVISSI…      3 PSIVIS…    61 Posi…      1 Hormo… NO P…      2 No pr… table…
#>  4 PSIVISSI…      4 PSIVIS…    67 Nega…      2 Hormo… NO P…      2 No pr… table…
#>  5 PSIVISSI…      5 PSIVIS…    55 Posi…      1 Hormo… NO P…      2 No pr… visma…
#>  6 PSIVISSI…      6 PSIVIS…    70 Nega…      2 Hormo… NO P…      2 No pr… table…
#>  7 PSIVISSI…      7 PSIVIS…    54 Posi…      1 Hormo… NO P…      2 No pr… visma…
#>  8 PSIVISSI…      8 PSIVIS…    62 Nega…      2 Hormo… PRIO…      1 Prior… table…
#>  9 PSIVISSI…      9 PSIVIS…    61 Posi…      1 Hormo… NO P…      2 No pr… table…
#> 10 PSIVISSI…     10 PSIVIS…    65 Posi…      1 Hormo… NO P…      2 No pr… visma…
#> # ℹ 2,189 more rows
#> # ℹ 11 more variables: TRT01PN <dbl>, PARAM <chr>, PARAMCD <chr>, AVAL <dbl>,
#> #   CNSR <dbl>, EVNTDESC <chr>, CNSDTDSC <chr>, DCTREAS <chr>, time <dbl>,
#> #   event <dbl>, group <fct>
…
