Quick Start Guide for Survival Curve Extrapolation • easysurv
…
# Overwrite any labels impacted by re-coding
attr(surv_data$event, "label") <- "0 = Censored, 1 = Event"

# Define an endpoint label which can be used in plots (if desired)
endpoint_label <- "Overall Survival"

Our data should be ready for survival analysis now, but we want to
make sure everything is set up correctly. We can take a look at the top
few rows of our “tibble”.

# Make sure the data appears as expected.
# A tibble prints the first 10 rows by default
surv_data

## # A tibble: 228 × 3
##     time event strata
##    <dbl> <dbl> <fct> 
##  1 10.1      1 Male  
##  2 14.9      1 Male  
##  3 33.2      0 Male  
##  4  6.90     1 Male  
##  5 29.0      1 Male  
##  6 33.6      0 Male  
##  7 10.2      1 Female
##  8 11.9      1 Female
##  9  7.16     1 Male  
## 10  5.45     1 Male  
## # ℹ 218 more rows
…
